# Moment          
# CofR            : (0.0000000000e+00 0.0000000000e+00 0.0000000000e+00)
#
# Time            	(total_x total_y total_z)	(pressure_x pressure_y pressure_z)	(viscous_x viscous_y viscous_z)
0.001             	(6.3306416584e-02 5.8204714523e+00 -1.5826702989e+02)	(6.3242754857e-02 5.7417796802e+00 -1.5616728999e+02)	(6.3661727172e-05 7.8691772153e-02 -2.0997398986e+00)
0.001             	(6.3323902607e-02 5.8204578048e+00 -1.5826762096e+02)	(6.3260239630e-02 5.7417661916e+00 -1.5616788529e+02)	(6.3662976911e-05 7.8691613170e-02 -2.0997356655e+00)
